Week 5 - Read/Modify/Summarize Data
…
Task 2: Summarize the Data (Very Basic EDA

For the items on the combined data, final_join, we’ll be doing the following: one, looking at how the data is stored and two, documenting the missing values in the data.

# 1. Here we print final_join to confirm and check our column types. As seen below, sex, address, famsize, and Pstatus are the correct column types of factor.
print(final_join)

# A tibble: 320 × 33
   school sex      age address famsize    Pstatus  Medu  Fedu Mjob  Fjob  reason
   <chr>  <fct>  <int> <fct>   <fct>      <fct>   <int> <int> <chr> <chr> <chr> 
 1 GP     Female    18 Urban   greater t… apart       4     4 at_h… teac… course
 2 GP     Female    17 Urban   greater t… living…     1     1 at_h… other course
 3 GP     Female    15 Urban   greater t… living…     4     2 heal… serv… home  
 4 GP     Female    16 Urban   greater t… living…     3     3 other other home  
 5 GP     Male      16 Urban   less or e… living…     4     3 serv… other reput…
 6 GP     Male      16 Urban   less or e… living…     2     2 other other home  
 7 GP     Female    17 Urban   greater t… apart       4     4 other teac… home  
 8 GP     Male      15 Urban   less or e… apart       3     2 serv… other home  
 9 GP     Male      15 Urban   greater t… living…     3     4 other other home  
10 GP     Female    15 Urban   greater t… living…     4     4 teac… heal… reput…
# ℹ 310 more rows
# ℹ 22 more variables: guardian <chr>, traveltime <int>, studytime <int>,
#   failures <int>, schoolsup <chr>, famsup <chr>, paid <chr>,
#   activities <chr>, nursery <chr>, higher <chr>, internet <chr>,
#   romantic <chr>, famrel <int>, freetime <int>, goout <int>, Dalc <int>,
#   Walc <int>, health <int>, absences <int>, G1 <int>, G2 <int>, G3 <int>
…
# Finding upper and lower fence for outliers
7.5 + 1.5*7.5 

[1] 18.75

0 - 1.5*7.5

[1] -11.25

# Subsetting final_join table for absence outliers then comparing means of absences from original table to the one without outliers.
absences_outlier_filter <- final_join |>
  filter(absences < 18.75)
absences_outlier_filter

# A tibble: 308 × 33
   school sex      age address famsize    Pstatus  Medu  Fedu Mjob  Fjob  reason
   <chr>  <fct>  <int> <fct>   <fct>      <fct>   <int> <int> <chr> <chr> <chr> 
 1 GP     Female    18 Urban   greater t… apart       4     4 at_h… teac… course
 2 GP     Female    17 Urban   greater t… living…     1     1 at_h… other course
 3 GP     Female    15 Urban   greater t… living…     4     2 heal… serv… home  
 4 GP     Female    16 Urban   greater t… living…     3     3 other other home  
 5 GP     Male      16 Urban   less or e… living…     4     3 serv… other reput…
 6 GP     Male      16 Urban   less or e… living…     2     2 other other home  
 7 GP     Female    17 Urban   greater t… apart       4     4 other teac… home  
 8 GP     Male      15 Urban   less or e… apart       3     2 serv… other home  
 9 GP     Male      15 Urban   greater t… living…     3     4 other other home  
10 GP     Female    15 Urban   greater t… living…     4     4 teac… heal… reput…
# ℹ 298 more rows
# ℹ 22 more variables: guardian <chr>, traveltime <int>, studytime <int>,
#   failures <int>, schoolsup <chr>, famsup <chr>, paid <chr>,
#   activities <chr>, nursery <chr>, higher <chr>, internet <chr>,
#   romantic <chr>, famrel <int>, freetime <int>, goout <int>, Dalc <int>,
#   Walc <int>, health <int>, absences <int>, G1 <int>, G2 <int>, G3 <int>
…
